^C:\USERS\KATTY\SOURCE\REPOS\CONSOLEAPPLICATION10\CONSOLEAPPLICATION10\DEBUG\CONSOLEAPPLICATION10.OBJ
C:\USERS\KATTY\SOURCE\REPOS\CONSOLEAPPLICATION10\DEBUG\CONSOLEAPPLICATION10.EXE
C:\USERS\KATTY\SOURCE\REPOS\CONSOLEAPPLICATION10\DEBUG\CONSOLEAPPLICATION10.ILK
C:\USERS\KATTY\SOURCE\REPOS\CONSOLEAPPLICATION10\DEBUG\CONSOLEAPPLICATION10.PDB
