^C:\USERS\KATTY\SOURCE\REPOS\CONSOLEAPPLICATION4\CONSOLEAPPLICATION4\DEBUG\CONSOLEAPPLICATION4.OBJ|C:\USERS\KATTY\SOURCE\REPOS\CONSOLEAPPLICATION4\CONSOLEAPPLICATION4\DEBUG\DYNARR.OBJ
C:\USERS\KATTY\SOURCE\REPOS\CONSOLEAPPLICATION4\DEBUG\CONSOLEAPPLICATION4.EXE
C:\USERS\KATTY\SOURCE\REPOS\CONSOLEAPPLICATION4\DEBUG\CONSOLEAPPLICATION4.ILK
C:\USERS\KATTY\SOURCE\REPOS\CONSOLEAPPLICATION4\DEBUG\CONSOLEAPPLICATION4.PDB
