^C:\USERS\KATTY\SOURCE\REPOS\CONSOLEAPPLICATION3\CONSOLEAPPLICATION3\DEBUG\BOX.OBJ|C:\USERS\KATTY\SOURCE\REPOS\CONSOLEAPPLICATION3\CONSOLEAPPLICATION3\DEBUG\CONSOLEAPPLICATION3.OBJ|C:\USERS\KATTY\SOURCE\REPOS\CONSOLEAPPLICATION3\CONSOLEAPPLICATION3\DEBUG\CONTAINER.OBJ
/OUT:"C:\USERS\KATTY\SOURCE\REPOS\CONSOLEAPPLICATION3\DEBUG\CONSOLEAPPLICATION3.EXE" /INCREMENTAL /NOLOGO KERNEL32.LIB USER32.LIB GDI32.LIB WINSPOOL.LIB COMDLG32.LIB ADVAPI32.LIB SHELL32.LIB OLE32.LIB OLEAUT32.LIB UUID.LIB ODBC32.LIB ODBCCP32.LIB /MANIFEST /MANIFESTUAC:"level='asInvoker' uiAccess='false'" /manifest:embed /DEBUG:FASTLINK /PDB:"C:\USERS\KATTY\SOURCE\REPOS\CONSOLEAPPLICATION3\DEBUG\CONSOLEAPPLICATION3.PDB" /SUBSYSTEM:CONSOLE /TLBID:1 /DYNAMICBASE /NXCOMPAT /IMPLIB:"C:\USERS\KATTY\SOURCE\REPOS\CONSOLEAPPLICATION3\DEBUG\CONSOLEAPPLICATION3.LIB" /MACHINE:X86 DEBUG\BOX.OBJ
DEBUG\CONSOLEAPPLICATION3.OBJ
DEBUG\CONTAINER.OBJ
